﻿BUILDINGS={
	s:STATE_REUYEL = {
		region_state:F14 = {
			create_building={
				building="building_government_administration"
				add_ownership={
					country={
						country="c:F14"
						levels=2
					}
				}
				reserves=1
				activate_production_methods={ "pm_horizontal_drawer_cabinets" "pm_arcane_religious_bureaucrats" }
			}
			create_building={
				building="building_textile_mills"
				add_ownership={
					building={
						type="building_textile_mills"
						country="c:F14"
						levels=2
						region="STATE_REUYEL"
					}
				}
				reserves=1
				activate_production_methods={ "pm_handsewn_clothes" "pm_no_luxury_clothes" "pm_traditional_looms" }
			}
			create_building={
				building="building_furniture_manufacturies"
				add_ownership={
					building={
						type="building_financial_district"
						country="c:F14"
						levels=1
						region="STATE_REUYEL"
					}
				}
				reserves=1
				activate_production_methods={ "pm_handcrafted_furniture" "pm_automation_disabled" "pm_no_luxuries" }
			}
			create_building={
				building="building_fishing_wharf"
				add_ownership={
					building={
						type="building_fishing_wharf"
						country="c:F14"
						levels=3
						region="STATE_REUYEL"
					}
				}
				reserves=1
				activate_production_methods={ "pm_simple_fishing" "pm_unrefrigerated" }
			}
			create_building={
				building="building_wheat_farm"
				add_ownership={
					building={
						type="building_wheat_farm"
						country="c:F14"
						levels=2
						region="STATE_REUYEL"
					}
					building={
						type="building_manor_house"
						country="c:F14"
						levels=1
						region="STATE_REUYEL"
					}
				}
				reserves=1
				activate_production_methods={ "pm_simple_farming" "pm_tools_disabled" "pm_no_secondary" }
			}
			create_building={
				building="building_silk_plantation"
				add_ownership={
					building={
						type="building_silk_plantation"
						country="c:F14"
						levels=1
						region="STATE_REUYEL"
					}
					building={
						type="building_manor_house"
						country="c:F14"
						levels=1
						region="STATE_REUYEL"
					}
				}
				reserves=1
				activate_production_methods={ "default_building_silk_plantation" "pm_no_enhancements" "pm_road_carts"  }
			}
			create_building={
				building="building_tea_plantation"
				add_ownership={
					building={
						type="building_tea_plantation"
						country="c:F14"
						levels=1
						region="STATE_REUYEL"
					}
				}
				reserves=1
				activate_production_methods={ "default_building_tea_plantation" "pm_no_enhancements" "pm_road_carts"  }
			}
			create_building={
				building="building_cotton_plantation"
				add_ownership={
					building={
						type="building_cotton_plantation"
						country="c:F14"
						levels=1
						region="STATE_REUYEL"
					}
					building={
						type="building_manor_house"
						country="c:F14"
						levels=1
						region="STATE_REUYEL"
					}
				}
				reserves=1
				activate_production_methods={ "default_building_cotton_plantation" "pm_no_enhancements" "pm_road_carts"  }
			}
			create_building={
				building="building_military_shipyards"
				add_ownership={
					country={
						country="c:F14"
						levels=1
					}
				}
				reserves=1
				activate_production_methods={ "pm_military_shipbuilding_wooden" }
			}
			create_building={
				building="building_port"
				add_ownership={
					country={
						country="c:F14"
						levels=2
					}
				}
				reserves=1
				activate_production_methods={ "pm_basic_port" }
			}
		}
		region_state:A09 = {
			create_building={
				building="building_port"
				add_ownership={
					country={
						country="c:A09"
						levels=1
					}
				}
				reserves=1
				activate_production_methods={ "pm_basic_port" }
			}
		}
	}

	s:STATE_CRATHANOR = {
		region_state:F14 = {
			create_building={
				building="building_furniture_manufacturies"
				add_ownership={
					building={
						type="building_furniture_manufacturies"
						country="c:F14"
						levels=1
						region="STATE_CRATHANOR"
					}
				}
				reserves=1
				activate_production_methods={ "pm_handcrafted_furniture" "pm_automation_disabled" "pm_no_luxuries" }
			}
			create_building={
				building="building_fishing_wharf"
				add_ownership={
					building={
						type="building_fishing_wharf"
						country="c:F14"
						levels=2
						region="STATE_CRATHANOR"
					}
				}
				reserves=1
				activate_production_methods={ "pm_simple_fishing" "pm_unrefrigerated" }
			}
			create_building={
				building="building_wheat_farm"
				add_ownership={
					building={
						type="building_wheat_farm"
						country="c:F14"
						levels=2
						region="STATE_CRATHANOR"
					}
					building={
						type="building_manor_house"
						country="c:F14"
						levels=2
						region="STATE_CRATHANOR"
					}
				}
				reserves=1
				activate_production_methods={ "pm_simple_farming" "pm_tools_disabled" "pm_no_secondary" }
			}
			create_building={
				building="building_tea_plantation"
				add_ownership={
					building={
						type="building_tea_plantation"
						country="c:F14"
						levels=1
						region="STATE_CRATHANOR"
					}
				}
				reserves=1
				activate_production_methods={ "default_building_tea_plantation" "pm_no_enhancements" "pm_road_carts"  }
			}
			create_building={
				building="building_cotton_plantation"
				add_ownership={
					building={
						type="building_cotton_plantation"
						country="c:F14"
						levels=1
						region="STATE_CRATHANOR"
					}
				}
				reserves=1
				activate_production_methods={ "default_building_cotton_plantation" "pm_no_enhancements" "pm_road_carts"  }
			}
			create_building={
				building="building_tobacco_plantation"
				add_ownership={
					building={
						type="building_tobacco_plantation"
						country="c:F14"
						levels=1
						region="STATE_CRATHANOR"
					}
					building={
						type="building_manor_house"
						country="c:F14"
						levels=1
						region="STATE_CRATHANOR"
					}
				}
				reserves=1
				activate_production_methods={ "default_building_tobacco_plantation" "pm_no_enhancements" "pm_road_carts"  }
			}
			create_building={
				building="building_port"
				add_ownership={
					country={
						country="c:F14"
						levels=1
					}
				}
				reserves=1
				activate_production_methods={ "pm_basic_port" }
			}
		}
		region_state:A09 = {
			create_building={
				building="building_port"
				add_ownership={
					country={
						country="c:A09"
						levels=1
					}
				}
				reserves=1
				activate_production_methods={ "pm_basic_port" }
			}
			create_building={ #Gemisle
				building="building_gem_mine"
				add_ownership={
					building={
						type="building_gem_mine"
						country="c:A09"
						levels=1
						region="STATE_CRATHANOR"
					}
				}
				reserves=1
				activate_production_methods={ "pm_no_explosives" "pm_no_steam_automation" "pm_road_carts" }
			}
		}
	}

	s:STATE_MEDBAHAR = {
		region_state:F14 = {
			create_building={
				building="building_tea_plantation"
				add_ownership={
					building={
						type="building_manor_house"
						country="c:F14"
						levels=1
						region="STATE_MEDBAHAR"
					}
					building={
						type="building_tea_plantation"
						country="c:F14"
						levels=1
						region="STATE_MEDBAHAR"
					}
				}
				reserves=1
				activate_production_methods={ "default_building_tea_plantation" "pm_no_enhancements" "pm_road_carts"  }
			}
			create_building={
				building="building_tobacco_plantation"
				add_ownership={
					building={
						type="building_manor_house"
						country="c:F14"
						levels=1
						region="STATE_MEDBAHAR"
					}
					building={
						type="building_tobacco_plantation"
						country="c:F14"
						levels=1
						region="STATE_MEDBAHAR"
					}
				}
				reserves=1
				activate_production_methods={ "default_building_tobacco_plantation" "pm_no_enhancements" "pm_road_carts"  }
			}
			create_building={
				building="building_fishing_wharf"
				add_ownership={
					building={
						type="building_fishing_wharf"
						country="c:F14"
						levels=3
						region="STATE_MEDBAHAR"
					}
				}
				reserves=1
				activate_production_methods={ "pm_simple_fishing" "pm_unrefrigerated" }
			}
		}
		region_state:F15 = {
		}
	}
	s:STATE_OVDAL_TUNGR = {
		region_state:F15 = {
			create_building = {
				building = "building_dwarven_hold"
				add_ownership={
					country={
						country="c:F15"
						levels=3
					}
				}
				activate_production_methods={ "pm_hold_artisan" }
			}
			create_building={
				building="building_construction_sector"
				add_ownership={
					country={
						country="c:F15"
						levels=1
					}
				}
				activate_production_methods={ "pm_iron_frame_buildings" }
			}
			create_building = {
				building = "building_government_administration"
				add_ownership={
					country={
						country="c:F15"
						levels=1
					}
				}
				activate_production_methods={ "pm_horizontal_drawer_cabinets" "pm_arcane_religious_bureaucrats" }
			}
			create_building={
				building="building_livestock_ranch"
				add_ownership={
					building={
						type="building_manor_house"
						country="c:F15"
						levels=1
						region="STATE_OVDAL_TUNGR"
					}
				}
			}
		}
	}

	s:STATE_MEGAIROUS = {
		region_state:F14 = {
			create_building={
				building="building_logging_camp"
				add_ownership={
					building={
						type="building_logging_camp"
						country="c:F14"
						levels=2
						region="STATE_MEGAIROUS"
					}
				}
				reserves=1
				activate_production_methods={ "pm_simple_forestry" "pm_road_carts" "pm_increased_hardwood" }
			}
			create_building={
				building="building_arms_industry"
				add_ownership={
					building={
						type="building_arms_industry"
						country="c:F14"
						levels=2
						region="STATE_MEGAIROUS"
					}
				}
				reserves=1
				activate_production_methods={ "pm_muskets" }
			}
			create_building={
				building="building_fishing_wharf"
				add_ownership={
					building={
						type="building_fishing_wharf"
						country="c:F14"
						levels=1
						region="STATE_MEGAIROUS"
					}
				}
				reserves=1
				activate_production_methods={ "pm_simple_fishing" "pm_unrefrigerated" }
			}
			create_building={
				building="building_wheat_farm"
				add_ownership={
					building={
						type="building_manor_house"
						country="c:F14"
						levels=3
						region="STATE_MEGAIROUS"
					}
				}
				reserves=1
				activate_production_methods={ "pm_simple_farming" "pm_tools_disabled" "pm_citrus_orchards" }
			}
			create_building={
				building="building_port"
				add_ownership={
					country={
						country="c:F14"
						levels=2
					}
				}
				reserves=1
				activate_production_methods={ "pm_basic_port" }
			}
			create_building={
				building="building_shipyards"
				add_ownership={
					building={
						type="building_shipyards"
						country="c:F14"
						levels=2
						region="STATE_MEGAIROUS"
					}
				}
				reserves=1
				activate_production_methods={ "pm_basic_shipbuilding"  }
			}
		}
	}

	s:STATE_AQATBAHAR = {
		region_state:F14 = {
			create_building={
				building="building_government_administration"
				add_ownership={
					country={
						country="c:F14"
						levels=4
					}
				}
				reserves=1
				activate_production_methods={ "pm_horizontal_drawer_cabinets" "pm_arcane_religious_bureaucrats" }
			}
			create_building={
				building="building_textile_mills"
				add_ownership={
					building={
						type="building_financial_district"
						country="c:F14"
						levels=2
						region="STATE_AQATBAHAR"
					}
				}
				reserves=1
				activate_production_methods={ "pm_handsewn_clothes" "pm_no_luxury_clothes" "pm_traditional_looms" }
			}
			create_building={
				building="building_paper_mills"
				add_ownership={
					building={
						type="building_paper_mills"
						country="c:F14"
						levels=2
						region="STATE_AQATBAHAR"
					}
				}
				reserves=1
				activate_production_methods={ "pm_pulp_pressing" "pm_automation_disabled" }
			}
			create_building={
				building="building_logging_camp"
				add_ownership={
					building={
						type="building_logging_camp"
						country="c:F14"
						levels=2
						region="STATE_AQATBAHAR"
					}
					building={
						type="building_manor_house"
						country="c:F14"
						levels=1
						region="STATE_AQATBAHAR"
					}
				}
				reserves=1
				activate_production_methods={ "pm_simple_forestry" "pm_no_equipment" "pm_road_carts" "pm_no_hardwood" }
			}
			create_building={
				building="building_fishing_wharf"
				add_ownership={
					building={
						type="building_fishing_wharf"
						country="c:F14"
						levels=1
						region="STATE_AQATBAHAR"
					}
				}
				reserves=1
				activate_production_methods={ "pm_simple_fishing" "pm_unrefrigerated" }
			}
			create_building={
				building="building_tea_plantation"
				add_ownership={
					building={
						type="building_tea_plantation"
						country="c:F14"
						levels=2
						region="STATE_AQATBAHAR"
					}
					building={
						type="building_manor_house"
						country="c:F14"
						levels=1
						region="STATE_AQATBAHAR"
					}
				}
				reserves=1
				activate_production_methods={ "default_building_tea_plantation" "pm_no_enhancements" "pm_road_carts"  }
			}
			create_building={
				building="building_wheat_farm"
				add_ownership={
					building={
						type="building_wheat_farm"
						country="c:F14"
						levels=2
						region="STATE_AQATBAHAR"
					}
					building={
						type="building_manor_house"
						country="c:F14"
						levels=2
						region="STATE_AQATBAHAR"
					}
				}
				reserves=1
				activate_production_methods={ "pm_simple_farming" "pm_tools_disabled" "pm_citrus_orchards" }
			}
			create_building={
				building="building_port"
				add_ownership={
					country={
						country="c:F14"
						levels=2
					}
				}
				reserves=1
				activate_production_methods={ "pm_basic_port" }
			}
		}
	}

	s:STATE_BAHAR_PROPER = {
		region_state:F14 = {
			create_building={
				building="building_logging_camp"
				add_ownership={
					building={
						type="building_logging_camp"
						country="c:F14"
						levels=2
						region="STATE_BAHAR_PROPER"
					}
					building={
						type="building_manor_house"
						country="c:F14"
						levels=2
						region="STATE_BAHAR_PROPER"
					}
				}
				reserves=1
				activate_production_methods={ "pm_simple_forestry" "pm_no_equipment" "pm_road_carts" "pm_no_hardwood" }
			}
			create_building={
				building="building_fishing_wharf"
				add_ownership={
					building={
						type="building_fishing_wharf"
						country="c:F14"
						levels=1
						region="STATE_BAHAR_PROPER"
					}
				}
				reserves=1
				activate_production_methods={ "pm_simple_fishing" "pm_unrefrigerated" }
			}
			create_building={
				building="building_wheat_farm"
				add_ownership={
					building={
						type="building_wheat_farm"
						country="c:F14"
						levels=2
						region="STATE_BAHAR_PROPER"
					}
					building={
						type="building_manor_house"
						country="c:F14"
						levels=1
						region="STATE_BAHAR_PROPER"
					}
				}
				reserves=1
				activate_production_methods={ "pm_simple_farming" "pm_tools_disabled" "pm_citrus_orchards" }
			}
			create_building={
				building="building_cotton_plantation"
				add_ownership={
					building={
						type="building_manor_house"
						country="c:F14"
						levels=1
						region="STATE_BAHAR_PROPER"
					}
				}
				reserves=1
				activate_production_methods={ "default_building_cotton_plantation" "pm_no_enhancements" "pm_road_carts"  }
			}
			create_building={
				building="building_vineyard_plantation"
				add_ownership={
					building={
						type="building_vineyard_plantation"
						country="c:F14"
						levels=1
						region="STATE_BAHAR_PROPER"
					}
				}
				reserves=1
				activate_production_methods={ "default_building_vineyard_plantation" "pm_no_enhancements" "pm_road_carts"  }
			}
			create_building={
				building="building_port"
				add_ownership={
					country={
						country="c:F14"
						levels=2
					}
				}
				reserves=1
				activate_production_methods={ "pm_basic_port" }
			}
		}
	}

	s:STATE_DROLAS={
		region_state:F02={
			create_building={
				building="building_livestock_ranch"
				add_ownership={
					building={
						type="building_manor_house"
						country="c:F02"
						levels=1
						region="STATE_DROLAS"
					}
				}
				reserves=1
				activate_production_methods={ "pm_simple_ranch" "pm_standard_fences" "pm_unrefrigerated" "pm_open_air_stockyards" }
			}
			create_building={
				building="building_fishing_wharf"
				add_ownership={
					building={
						type="building_fishing_wharf"
						country="c:F02"
						levels=2
						region="STATE_DROLAS"
					}
				}
				reserves=1
				activate_production_methods={ "pm_unrefrigerated" "pm_fishing_trawlers" }
			}
			create_building={
				building="building_textile_mills"
				add_ownership={
					building={
						type="building_textile_mills"
						country="c:F02"
						levels=1
						region="STATE_DROLAS"
					}
				}
				reserves=1
				activate_production_methods={ "pm_handsewn_clothes" "pm_no_luxury_clothes" "pm_traditional_looms" }
			}
			create_building={
				building="building_millet_farm"
				add_ownership={
					building={
						type="building_manor_house"
						country="c:F02"
						levels=1
						region="STATE_DROLAS"
					}
				}
				add_ownership={
					building={
						type="building_millet_farm"
						country="c:F02"
						levels=1
						region="STATE_DROLAS"
					}
				}
				reserves=1
				activate_production_methods={ "pm_simple_farming" "pm_tools_disabled" "pm_no_secondary" }
			}
			create_building={
				building="building_port"
				add_ownership={
					country={
						country="c:F02"
						levels=1
					}
				}
				reserves=1
				activate_production_methods={ "pm_basic_port" }
			}
		}
		region_state:A09={
			create_building={
				building="building_port"
				add_ownership={
					country={
						country="c:A09"
						levels=1
					}
				}
				reserves=1
				activate_production_methods={ "pm_basic_port" }
			}
		}
	}

	s:STATE_ANNAIL={
		region_state:F02={
			create_building={
				building="building_livestock_ranch"
				add_ownership={
					building={
						type="building_manor_house"
						country="c:F02"
						levels=1
						region="STATE_ANNAIL"
					}
				}
				reserves=1
				activate_production_methods={ "pm_simple_ranch" "pm_standard_fences" "pm_unrefrigerated" "pm_open_air_stockyards" }
			}
			create_building={
				building="building_fishing_wharf"
				add_ownership={
					building={
						type="building_fishing_wharf"
						country="c:F02"
						levels=2
						region="STATE_ANNAIL"
					}
				}
				reserves=1
				activate_production_methods={ "pm_unrefrigerated" "pm_fishing_trawlers" }
			}
			create_building={
				building="building_shipyards"
				add_ownership={
					building={
						type="building_shipyards"
						country="c:F02"
						levels=1
						region="STATE_ANNAIL"
					}
				}
				reserves=1
				activate_production_methods={ "pm_basic_shipbuilding"  }
			}
			create_building={
				building="building_millet_farm"
				add_ownership={
					building={
						type="building_manor_house"
						country="c:F02"
						levels=1
						region="STATE_ANNAIL"
					}
				}
				reserves=1
				activate_production_methods={ "pm_simple_farming" "pm_tools_disabled" "pm_no_secondary" }
			}
			create_building={
				building="building_port"
				add_ownership={
					country={
						country="c:F02"
						levels=2
					}
				}
				reserves=1
				activate_production_methods={ "pm_basic_port" }
			}
		}
		region_state:A09={
			create_building={
				building="building_port"
				add_ownership={
					country={
						country="c:A09"
						levels=1
					}
				}
				reserves=1
				activate_production_methods={ "pm_basic_port" }
			}
		}
	}

	s:STATE_KUZARAM={
		region_state:F09={
			create_building={
				building="building_fishing_wharf"
				add_ownership={
					building={
						type="building_fishing_wharf"
						country="c:F09"
						levels=2
						region="STATE_KUZARAM"
					}
				}
				reserves=1
				activate_production_methods={ "pm_unrefrigerated" "pm_simple_fishing" }
			}
			create_building={
				building="building_livestock_ranch"
				add_ownership={
					building={
						type="building_livestock_ranch"
						country="c:F09"
						levels=2
						region="STATE_KUZARAM"
					}
				}
				reserves=1
				activate_production_methods={ "pm_simple_ranch" "pm_standard_fences" "pm_unrefrigerated" "pm_open_air_stockyards" }
			}
		}
	}

	s:STATE_BRASAN={
		region_state:F02={
			create_building={
				building="building_port"
				add_ownership={
					country={
						country="c:F02"
						levels=3
					}
				}
				reserves=1
				activate_production_methods={ "pm_basic_port" }
			}
			create_building={
				building="building_glassworks"
				add_ownership={
					building={
						type="building_glassworks"
						country="c:F02"
						levels=2
						region="STATE_BRASAN"
					}
				}
				reserves=1
				activate_production_methods = { "pm_forest_glass"  "pm_disabled_ceramics" "pm_manual_glassblowing" }
			}
			create_building={
				building="building_textile_mills"
				add_ownership={
					building={
						type="building_textile_mills"
						country="c:F02"
						levels=1
						region="STATE_BRASAN"
					}
				}
				reserves=1
				activate_production_methods={ "pm_handsewn_clothes" "pm_no_luxury_clothes" "pm_traditional_looms" }
			}
			create_building={
				building="building_government_administration"
				add_ownership={
					country={
						country="c:F02"
						levels=2
					}
				}
				reserves=1
				activate_production_methods={ "pm_horizontal_drawer_cabinets" "pm_arcane_religious_bureaucrats" }
			}
			create_building={
				building="building_sugar_plantation"
				add_ownership={
					building={
						type="building_manor_house"
						country="c:F02"
						levels=2
						region="STATE_BRASAN"
					}
				}
				add_ownership={
					building={
						type="building_sugar_plantation"
						country="c:F02"
						levels=1
						region="STATE_BRASAN"
					}
				}
				reserves=1
				activate_production_methods={ "default_building_sugar_plantation" "pm_no_enhancements" "pm_road_carts"  }
			}
			create_building={
				building="building_logging_camp"
				add_ownership={
					building={
						type="building_logging_camp"
						country="c:F02"
						levels=2
						region="STATE_BRASAN"
					}
				}
				reserves=1
				activate_production_methods={ "pm_simple_forestry" "pm_hardwood" "pm_no_equipment" "pm_road_carts" }
			}
			create_building={
				building="building_fishing_wharf"
				add_ownership={
					building={
						type="building_fishing_wharf"
						country="c:F02"
						levels=2
						region="STATE_BRASAN"
					}
				}
				reserves=1
				activate_production_methods={ "pm_simple_fishing" "pm_unrefrigerated" }
			}
			create_building={
				building="building_rice_farm"
				add_ownership={
					building={
						type="building_manor_house"
						country="c:F02"
						levels=2
						region="STATE_BRASAN"
					}
				}
				add_ownership={
					building={
						type="building_rice_farm"
						country="c:F02"
						levels=1
						region="STATE_BRASAN"
					}
				}
				reserves=1
				activate_production_methods={ "pm_simple_farming_building_rice_farm" "pm_no_secondary" "pm_tools_disabled" }
			}
			create_building={
				building="building_shipyards"
				add_ownership={
					building={
						type="building_shipyards"
						country="c:F02"
						levels=1
						region="STATE_BRASAN"
					}
				}
				reserves=1
				activate_production_methods={ "pm_basic_shipbuilding"  }
			}
			create_building={
				building="building_military_shipyards"
				add_ownership={
					country={
						country="c:F02"
						levels=2
					}
				}
				reserves=1
				activate_production_methods={ "pm_military_shipbuilding_wooden" }
			}
		}
	}

	s:STATE_SAD_SUR={
		region_state:F01={
			create_building={
				building="building_iron_mine"
				add_ownership={
					building={
						type="building_iron_mine"
						country="c:F01"
						levels=1
						region="STATE_SAD_SUR"
					}
				}
				reserves=1
				activate_production_methods={ "pm_picks_and_shovels_building_iron_mine" "pm_no_explosives" "pm_no_steam_automation" "pm_road_carts" }
			}
			create_building={
				building="building_livestock_ranch"
				add_ownership={
					building={
						type="building_manor_house"
						country="c:F01"
						levels=1
						region="STATE_SAD_SUR"
					}
				}
				reserves=1
				activate_production_methods={ "pm_simple_ranch" "pm_standard_fences" "pm_unrefrigerated" "pm_open_air_stockyards" }
			}
		}
		region_state:F02={
			create_building={
				building="building_livestock_ranch"
				add_ownership={
					building={
						type="building_manor_house"
						country="c:F02"
						levels=1
						region="STATE_SAD_SUR"
					}
				}
				reserves=1
				activate_production_methods={ "pm_simple_ranch" "pm_standard_fences" "pm_unrefrigerated" "pm_open_air_stockyards" }
			}
		}
	}

	s:STATE_LOWER_BURANUN={
		region_state:F01={
			create_building={
				building="building_government_administration"
				add_ownership={
					country={
						country="c:F01"
						levels=2
					}
				}
				reserves=1
				activate_production_methods={ "pm_horizontal_drawer_cabinets" "pm_arcane_religious_bureaucrats" }
			}
			create_building={
				building="building_port"
				add_ownership={
					country={
						country="c:F01"
						levels=3
					}
				}
				reserves=1
				activate_production_methods={ "pm_basic_port" }
			}
			create_building={
				building="building_logging_camp"
				add_ownership={
					building={
						type="building_logging_camp"
						country="c:F01"
						levels=2
						region="STATE_LOWER_BURANUN"
					}
				}
				reserves=1
				activate_production_methods={ "pm_simple_forestry" "pm_hardwood" "pm_no_equipment" "pm_road_carts" }
			}
			create_building={
				building="building_shipyards"
				add_ownership={
					building={
						type="building_shipyards"
						country="c:F01"
						levels=1
						region="STATE_LOWER_BURANUN"
					}
				}
				reserves=1
				activate_production_methods={ "pm_basic_shipbuilding"  }
			}
			create_building={
				building="building_military_shipyards"
				add_ownership={
					country={
						country="c:F01"
						levels=2
					}
				}
				reserves=1
				activate_production_methods={ "pm_military_shipbuilding_wooden" }
			}
			create_building={
				building="building_cotton_plantation"
				add_ownership={
					building={
						type="building_manor_house"
						country="c:F01"
						levels=2
						region="STATE_LOWER_BURANUN"
					}
					building={
						type="building_cotton_plantation"
						country="c:F01"
						levels=1
						region="STATE_LOWER_BURANUN"
					}
				}
				reserves=1
				activate_production_methods={ "default_building_cotton_plantation" "pm_no_enhancements" "pm_road_carts"  }
			}
		}
	}

	s:STATE_LOWER_SURAN = {
		region_state:F02 = {
			create_building={
				building="building_government_administration"
				add_ownership={
					country={
						country="c:F02"
						levels=2
					}
				}
				reserves=1
				activate_production_methods={ "pm_horizontal_drawer_cabinets" "pm_arcane_religious_bureaucrats" }
			}
			create_building={
				building="building_paper_mills"
				add_ownership={
					building={
						type="building_paper_mills"
						country="c:F02"
						levels=2
						region="STATE_LOWER_SURAN"
					}
				}
				reserves=1
				activate_production_methods={ "pm_pulp_pressing" "pm_automation_disabled" }
			}
			create_building={
				building="building_textile_mills"
				add_ownership={
					building={
						type="building_textile_mills"
						country="c:F02"
						levels=1
						region="STATE_LOWER_SURAN"
					}
				}
				reserves=1
				activate_production_methods={ "pm_handsewn_clothes" "pm_craftsman_sewing" "pm_traditional_looms" }
			}
			create_building={
				building="building_silk_plantation"
				add_ownership={
					building={
						type="building_silk_plantation"
						country="c:F02"
						levels=1
						region="STATE_LOWER_SURAN"
					}
				}
				reserves=1
				activate_production_methods={ "default_building_silk_plantation" "pm_no_enhancements" "pm_road_carts"  }
			}
			create_building={
				building="building_cotton_plantation"
				add_ownership={
					building={
						type="building_manor_house"
						country="c:F02"
						levels=2
						region="STATE_LOWER_SURAN"
					}
					building={
						type="building_cotton_plantation"
						country="c:F02"
						levels=1
						region="STATE_LOWER_SURAN"
					}
				}
				reserves=1
				activate_production_methods={ "default_building_cotton_plantation" "pm_no_enhancements" "pm_road_carts"  }
			}
			create_building={
				building="building_rice_farm"
				add_ownership={
					building={
						type="building_manor_house"
						country="c:F02"
						levels=2
						region="STATE_LOWER_SURAN"
					}
					building={
						type="building_rice_farm"
						country="c:F02"
						levels=1
						region="STATE_LOWER_SURAN"
					}
				}
				reserves=1
				activate_production_methods={ "pm_simple_farming_building_rice_farm" "pm_no_secondary" "pm_tools_disabled" }
			}
			create_building={
				building="building_logging_camp"
				add_ownership={
					building={
						type="building_logging_camp"
						country="c:F02"
						levels=1
						region="STATE_LOWER_SURAN"
					}
				}
				reserves=1
				activate_production_methods={ "pm_simple_forestry" "pm_hardwood" "pm_no_equipment" "pm_road_carts" }
			}
			create_building={
				building="building_livestock_ranch"
				add_ownership={
					building={
						type="building_manor_house"
						country="c:F02"
						levels=1
						region="STATE_LOWER_SURAN"
					}
				}
				reserves=1
				activate_production_methods={ "pm_simple_ranch" "pm_standard_fences" "pm_unrefrigerated" "pm_open_air_stockyards" }
			}
		}
	}

	s:STATE_BULWAR={
		region_state:F01={
			create_building={
				building="building_government_administration"
				add_ownership={
					country={
						country="c:F01"
						levels=4
					}
				}
				reserves=1
				activate_production_methods={ "pm_horizontal_drawer_cabinets" "pm_arcane_religious_bureaucrats" }
			}
			create_building={
				building="building_glassworks"
				add_ownership={
					building={
						type="building_glassworks"
						country="c:F01"
						levels=1
						region="STATE_BULWAR"
					}
					building={
						type="building_financial_district"
						country="c:F01"
						levels=1
						region="STATE_BULWAR"
					}
				}
				reserves=1
				activate_production_methods = { "pm_forest_glass"  "pm_ceramics" "pm_manual_glassblowing" }
			}
			create_building={
				building="building_paper_mills"
				add_ownership={
					building={
						type="building_financial_district"
						country="c:F01"
						levels=1
						region="STATE_BULWAR"
					}
				}
				reserves=1
				activate_production_methods={ "pm_pulp_pressing" "pm_automation_disabled" }
			}
			create_building={
				building="building_rice_farm"
				add_ownership={
					building={
						type="building_manor_house"
						country="c:F01"
						levels=2
						region="STATE_BULWAR"
					}
					building={
						type="building_rice_farm"
						country="c:F01"
						levels=2
						region="STATE_BULWAR"
					}
				}
				reserves=1
				activate_production_methods={ "pm_simple_farming_building_rice_farm" "pm_no_secondary" "pm_tools_disabled" }
			}
			create_building={ #Maybe change this to dye workshops if they have enough dye
				building="building_textile_mills"
				add_ownership={
					building={
						type="building_financial_district"
						country="c:F01"
						levels=5
						region="STATE_BULWAR"
					}
					building={
						type="building_textile_mills"
						country="c:F01"
						levels=4
						region="STATE_BULWAR"
					}
				}
				reserves=1
				activate_production_methods={ "pm_dye_workshops" "pm_traditional_looms" "pm_craftsman_sewing" }
			}
			create_building={
				building="building_furniture_manufacturies"
				add_ownership={
					building={
						type="building_financial_district"
						country="c:F01"
						levels=2
						region="STATE_BULWAR"
					}
					building={
						type="building_furniture_manufacturies"
						country="c:F01"
						levels=2
						region="STATE_BULWAR"
					}
				}
				reserves=1
				activate_production_methods={ "pm_handcrafted_furniture" "pm_automation_disabled" "pm_luxury_furniture" }
			}
			create_building={
				building="building_silk_plantation"
				add_ownership={
					building={
						type="building_manor_house"
						country="c:F01"
						levels=2
						region="STATE_BULWAR"
					}
					building={
						type="building_silk_plantation"
						country="c:F01"
						levels=1
						region="STATE_BULWAR"
					}
				}
				reserves=1
				activate_production_methods={ "default_building_silk_plantation" "pm_no_enhancements" "pm_road_carts"  }
			}
			create_building={ #Amazingly vanilla has NO universities outside Europe/Americas, set this to 1 due to that, could be bumped to 2 if really wanted
				building="building_university"
				add_ownership={
					country={
						country="c:F01"
						levels=1
					}
				}
				reserves=1
				activate_production_methods={ "pm_arcane_religious_academia" }
			}
		}
	}

	s:STATE_KUMARKAND={
		region_state:F01={
			create_building={
				building="building_government_administration"
				add_ownership={
					country={
						country="c:F01"
						levels=3
					}
				}
				reserves=1
				activate_production_methods={ "pm_horizontal_drawer_cabinets" "pm_arcane_religious_bureaucrats" }
			}
			create_building={
				building="building_wheat_farm"
				add_ownership={
					building={
						type="building_manor_house"
						country="c:F01"
						levels=1
						region="STATE_KUMARKAND"
					}
				}
				reserves=1
				activate_production_methods={ "pm_tools_disabled" }
			}
			create_building={
				building="building_vineyard_plantation"
				add_ownership={
					building={
						type="building_manor_house"
						country="c:F01"
						levels=3
						region="STATE_KUMARKAND"
					}
					building={
						type="building_vineyard_plantation"
						country="c:F01"
						levels=3
						region="STATE_KUMARKAND"
					}
				}
				reserves=1
				activate_production_methods={ "default_building_vineyard_plantation" "pm_no_enhancements" "pm_road_carts"  }
			}
			create_building={
				building="building_university"
				add_ownership={
					country={
						country="c:F01"
						levels=1
					}
				}
				reserves=1
				activate_production_methods={ "pm_arcane_religious_academia" }
			}
		}
	}

	s:STATE_WEST_NAZA={
		region_state:F01={
			create_building={
				building="building_government_administration"
				add_ownership={
					country={
						country="c:F01"
						levels=3
					}
				}
				reserves=1
				activate_production_methods={ "pm_simple_organization" "pm_arcane_religious_bureaucrats" }
			}
			create_building={
				building="building_textile_mills"
				add_ownership={
					building={
						type="building_textile_mills"
						country="c:F01"
						levels=1
						region="STATE_WEST_NAZA"
					}
				}
				reserves=1
				activate_production_methods={ "pm_dye_workshops" "pm_craftsman_sewing" "pm_traditional_looms" }
			}
			create_building={
				building="building_vineyard_plantation"
				add_ownership={
					building={
						type="building_manor_house"
						country="c:F01"
						levels=1
						region="STATE_WEST_NAZA"
					}
					building={
						type="building_vineyard_plantation"
						country="c:F01"
						levels=1
						region="STATE_WEST_NAZA"
					}
				}
				reserves=1
				activate_production_methods={ "default_building_vineyard_plantation" "pm_no_enhancements" "pm_road_carts"  }
			}
			create_building={
				building="building_wheat_farm"
				add_ownership={
					building={
						type="building_manor_house"
						country="c:F01"
						levels=1
						region="STATE_WEST_NAZA"
					}
					building={
						type="building_wheat_farm"
						country="c:F01"
						levels=1
						region="STATE_WEST_NAZA"
					}
				}
				reserves=1
				activate_production_methods={ "pm_simple_farming" "pm_tools_disabled" "pm_citrus_orchards" }
			}
		}
	}

	s:STATE_EAST_NAZA = {
		region_state:F01 = {
			create_building={
				building="building_government_administration"
				add_ownership={
					country={
						country="c:F01"
						levels=2
					}
				}
				reserves=1
				activate_production_methods={ "pm_horizontal_drawer_cabinets" "pm_arcane_religious_bureaucrats" }
			}
			create_building={
				building="building_gold_mine"
				add_ownership={
					building={
						type="building_gold_mine"
						country="c:F01"
						levels=1
						region="STATE_EAST_NAZA"
					}
				}
				reserves=1
				activate_production_methods={ "pm_picks_and_shovels_building_gold_mine" "pm_no_explosives" "pm_no_steam_automation" "pm_road_carts" }
			}
			create_building={
				building="building_iron_mine"
				add_ownership={
					building={
						type="building_iron_mine"
						country="c:F01"
						levels=1
						region="STATE_EAST_NAZA"
					}
				}
				reserves=1
				activate_production_methods={ "pm_picks_and_shovels_building_iron_mine" "pm_no_explosives" "pm_no_steam_automation" "pm_road_carts" }
			}
			create_building={
				building="building_wheat_farm"
				add_ownership={
					building={
						type="building_manor_house"
						country="c:F01"
						levels=3
						region="STATE_EAST_NAZA"
					}
					building={
						type="building_wheat_farm"
						country="c:F01"
						levels=3
						region="STATE_EAST_NAZA"
					}
				}
				reserves=1
				activate_production_methods={ "pm_tools_disabled" }
			}
			create_building={
				building="building_vineyard_plantation"
				add_ownership={
					building={
						type="building_manor_house"
						country="c:F01"
						levels=4
						region="STATE_EAST_NAZA"
					}
					building={
						type="building_vineyard_plantation"
						country="c:F01"
						levels=3
						region="STATE_EAST_NAZA"
					}
				}
				reserves=1
				activate_production_methods={ "default_building_vineyard_plantation" "pm_no_enhancements" "pm_road_carts"  }
			}
			create_building={
				building="building_cotton_plantation"
				add_ownership={
					building={
						type="building_manor_house"
						country="c:F01"
						levels=2
						region="STATE_EAST_NAZA"
					}
					building={
						type="building_cotton_plantation"
						country="c:F01"
						levels=1
						region="STATE_EAST_NAZA"
					}
				}
				reserves=1
				activate_production_methods={ "default_building_cotton_plantation" "pm_no_enhancements" "pm_road_carts"  }
			}
			create_building={
				building="building_silk_plantation"
				add_ownership={
					building={
						type="building_manor_house"
						country="c:F01"
						levels=1
						region="STATE_EAST_NAZA"
					}
				}
				reserves=1
				activate_production_methods={ "default_building_silk_plantation" "pm_no_enhancements" "pm_road_carts"  }
			}
			create_building={
				building="building_livestock_ranch"
				add_ownership={
					building={
						type="building_manor_house"
						country="c:F01"
						levels=1
						region="STATE_EAST_NAZA"
					}
					building={
						type="building_livestock_ranch"
						country="c:F01"
						levels=1
						region="STATE_EAST_NAZA"
					}
				}
				reserves=1
				activate_production_methods={ "pm_simple_ranch" "pm_standard_fences" "pm_unrefrigerated" "pm_open_air_stockyards" }
			}
		}
	}

	s:STATE_JADDANZAR = {
		region_state:F01 = {
			create_building={
				building="building_government_administration"
				add_ownership={
					country={
						country="c:F01"
						levels=11
					}
				}
				reserves=1
				activate_production_methods={ "pm_horizontal_drawer_cabinets" "pm_arcane_religious_bureaucrats" }
			}
			create_building={
				building="building_paper_mills"
				add_ownership={
					building={
						type="building_paper_mills"
						country="c:F01"
						levels=6
						region="STATE_JADDANZAR"
					}
				}
				reserves=1
				activate_production_methods={ "pm_pulp_pressing" "pm_automation_disabled" }
			}
			create_building={
				building="building_textile_mills"
				add_ownership={
					building={
						type="building_textile_mills"
						country="c:F01"
						levels=6
						region="STATE_JADDANZAR"
					}
				}
				reserves=1
				activate_production_methods={ "pm_dye_workshops" "pm_craftsman_sewing" "pm_traditional_looms" }
			}
			create_building={
				building="building_rice_farm"
				add_ownership={
					building={
						type="building_manor_house"
						country="c:F01"
						levels=2
						region="STATE_JADDANZAR"
					}
					building={
						type="building_rice_farm"
						country="c:F01"
						levels=1
						region="STATE_JADDANZAR"
					}
				}
				reserves=1
				activate_production_methods={ "pm_simple_farming_building_rice_farm" "pm_no_secondary" "pm_tools_disabled" }
			}
			create_building={
				building="building_silk_plantation"
				add_ownership={
					building={
						type="building_manor_house"
						country="c:F01"
						levels=2
						region="STATE_JADDANZAR"
					}
					building={
						type="building_silk_plantation"
						country="c:F01"
						levels=1
						region="STATE_JADDANZAR"
					}
				}
				reserves=1
				activate_production_methods={ "default_building_silk_plantation" "pm_no_enhancements" "pm_road_carts"  }
			}
			create_building={
				building="building_cotton_plantation"
				add_ownership={
					building={
						type="building_manor_house"
						country="c:F01"
						levels=2
						region="STATE_JADDANZAR"
					}
				}
				reserves=1
				activate_production_methods={ "default_building_cotton_plantation" "pm_no_enhancements" "pm_road_carts"  }
			}
			create_building={
				building="building_tobacco_plantation"
				add_ownership={
					building={
						type="building_manor_house"
						country="c:F01"
						levels=1
						region="STATE_JADDANZAR"
					}
					building={
						type="building_tobacco_plantation"
						country="c:F01"
						levels=1
						region="STATE_JADDANZAR"
					}
				}
				reserves=1
				activate_production_methods={ "default_building_tobacco_plantation" "pm_no_enhancements" "pm_road_carts"  }
			}
		}
	}

	s:STATE_AVAMEZAN={
		region_state:F01={
			create_building={
				building="building_government_administration"
				add_ownership={
					country={
						country="c:F01"
						levels=2
					}
				}
				reserves=1
				activate_production_methods={ "pm_horizontal_drawer_cabinets" "pm_arcane_religious_bureaucrats" }
			}
			create_building={
				building="building_textile_mills"
				add_ownership={
					building={
						type="building_textile_mills"
						country="c:F01"
						levels=1
						region="STATE_AVAMEZAN"
					}
				}
				reserves=1
				activate_production_methods={ "pm_dye_workshops" "pm_traditional_looms" "pm_craftsman_sewing" } 
			}
			create_building={
				building="building_silk_plantation"
				add_ownership={
					building={
						type="building_manor_house"
						country="c:F01"
						levels=1
						region="STATE_AVAMEZAN"
					}
				}
				reserves=1
				activate_production_methods={ "default_building_silk_plantation" "pm_no_enhancements" "pm_road_carts"  }
			}
			create_building={
				building="building_cotton_plantation"
				add_ownership={
					building={
						type="building_manor_house"
						country="c:F01"
						levels=1
						region="STATE_AVAMEZAN"
					}
					building={
						type="building_cotton_plantation"
						country="c:F01"
						levels=1
						region="STATE_AVAMEZAN"
					}
				}
				reserves=1
				activate_production_methods={ "default_building_cotton_plantation" "pm_no_enhancements" "pm_road_carts"  }
			}
			create_building={
				building="building_coffee_plantation"
				add_ownership={
					building={
						type="building_manor_house"
						country="c:F01"
						levels=5
						region="STATE_AVAMEZAN"
					}
				}
				reserves=1
				activate_production_methods={ "default_building_coffee_plantation" "pm_no_enhancements" "pm_road_carts"  }
			}
			create_building={
				building="building_rice_farm"
				add_ownership={
					building={
						type="building_manor_house"
						country="c:F01"
						levels=1
						region="STATE_AVAMEZAN"
					}
					building={
						type="building_rice_farm"
						country="c:F01"
						levels=1
						region="STATE_AVAMEZAN"
					}
				}
				reserves=1
				activate_production_methods={ "pm_simple_farming_building_rice_farm" "pm_no_secondary" "pm_tools_disabled" }
			}
			create_building={
				building="building_livestock_ranch"
				add_ownership={
					building={
						type="building_manor_house"
						country="c:F01"
						levels=2
						region="STATE_AVAMEZAN"
					}
					building={
						type="building_livestock_ranch"
						country="c:F01"
						levels=1
						region="STATE_AVAMEZAN"
					}
				}
				reserves=1
				activate_production_methods={ "pm_simple_ranch" "pm_standard_fences" "pm_unrefrigerated" "pm_open_air_stockyards" }
			}
		}
	}

	s:STATE_UPPER_SURAN={
		region_state:F01={
			create_building={
				building="building_logging_camp"
				add_ownership={
					building={
						type="building_logging_camp"
						country="c:F01"
						levels=1
						region="STATE_UPPER_SURAN"
					}
				}
				reserves=1
				activate_production_methods={ "pm_simple_forestry" "pm_hardwood" "pm_no_equipment" "pm_road_carts" }
			}
			create_building={
				building="building_tooling_workshops"
				add_ownership={
					building={
						type="building_tooling_workshops"
						country="c:F01"
						levels=1
						region="STATE_UPPER_SURAN"
					}
				}
				reserves=1
				activate_production_methods={ "pm_pig_iron" "pm_automation_disabled" }
			}
			create_building={
				building="building_furniture_manufacturies"
				add_ownership={
					building={
						type="building_furniture_manufacturies"
						country="c:F01"
						levels=3
						region="STATE_UPPER_SURAN"
					}
				}
				reserves=1
				activate_production_methods={ "pm_handcrafted_furniture" "pm_automation_disabled" "pm_luxury_furniture" }
			}
			create_building={
				building="building_wheat_farm"
				add_ownership={
					building={
						type="building_manor_house"
						country="c:F01"
						levels=1
						region="STATE_UPPER_SURAN"
					}
					building={
						type="building_manor_house"
						country="c:F01"
						levels=1
						region="STATE_UPPER_SURAN"
					}
				}
				reserves=1
				activate_production_methods={ "pm_simple_farming" "pm_tools_disabled" "pm_no_secondary" }
			}
			create_building={
				building="building_coffee_plantation"
				add_ownership={
					building={
						type="building_manor_house"
						country="c:F01"
						levels=8
						region="STATE_UPPER_SURAN"
					}
				}
				reserves=1
				activate_production_methods={ "default_building_coffee_plantation" "pm_no_enhancements" "pm_road_carts"  }
			}
			create_building={
				building="building_livestock_ranch"
				add_ownership={
					building={
						type="building_manor_house"
						country="c:F01"
						levels=2
						region="STATE_UPPER_SURAN"
					}
				}
				reserves=1
				activate_production_methods={ "pm_simple_ranch" "pm_standard_fences" "pm_unrefrigerated" "pm_open_air_stockyards" }
			}
		}
	}

	s:STATE_AZKA_SUR={
		region_state:F01={
			create_building={
				building="building_government_administration"
				add_ownership={
					country={
						country="c:F01"
						levels=5
					}
				}
				reserves=1
				activate_production_methods={ "pm_horizontal_drawer_cabinets" "pm_arcane_religious_bureaucrats" }
			}
			create_building={
				building="building_paper_mills"
				add_ownership={
					building={
						type="building_paper_mills"
						country="c:F01"
						levels=4
						region="STATE_AZKA_SUR"
					}
				}
				reserves=1
				activate_production_methods={ "pm_pulp_pressing" "pm_automation_disabled" }
			}
			create_building={ #as they have lots of adventurers
				building="building_arms_industry"
				add_ownership={
					building={
						type="building_arms_industry"
						country="c:F01"
						levels=4
						region="STATE_AZKA_SUR"
					}
				}
				reserves=1
				activate_production_methods={ "pm_muskets" }
			}
			create_building={
				building="building_artillery_foundries"
				add_ownership={
					country={
						country="c:F01"
						levels=1
					}
				}
				reserves=1
				activate_production_methods={ "pm_cannons" "pm_automation_disabled" }
			}
			create_building={
				building="building_dye_plantation"
				add_ownership={
					building={
						type="building_manor_house"
						country="c:F01"
						levels=1
						region="STATE_AZKA_SUR"
					}
					building={
						type="building_manor_house"
						country="c:F01"
						levels=1
						region="STATE_AZKA_SUR"
					}
				}
				reserves=1
				activate_production_methods={ "default_building_dye_plantation" "pm_no_enhancements" "pm_road_carts"  }
			}
			create_building={
				building="building_coffee_plantation"
				add_ownership={
					building={
						type="building_manor_house"
						country="c:F01"
						levels=2
						region="STATE_AZKA_SUR"
					}
				}
				reserves=1
				activate_production_methods={ "default_building_coffee_plantation" "pm_no_enhancements" "pm_road_carts"  }
			}
			create_building={
				building="building_opium_plantation"
				add_ownership={
					building={
						type="building_manor_house"
						country="c:F01"
						levels=2
						region="STATE_AZKA_SUR"
					}
				}
				reserves=1
				activate_production_methods={ "default_building_opium_plantation" "pm_no_enhancements" "pm_road_carts"  }
			}
			create_building={
				building="building_livestock_ranch"
				add_ownership={
					building={
						type="building_manor_house"
						country="c:F01"
						levels=1
						region="STATE_AZKA_SUR"
					}
				}
				reserves=1
				activate_production_methods={ "pm_simple_ranch" "pm_standard_fences" "pm_unrefrigerated" "pm_open_air_stockyards" }
			}
			create_building={
				building="building_wheat_farm"
				add_ownership={
					building={
						type="building_manor_house"
						country="c:F01"
						levels=2
						region="STATE_AZKA_SUR"
					}
					building={
						type="building_manor_house"
						country="c:F01"
						levels=1
						region="STATE_AZKA_SUR"
					}
				}
				reserves=1
				activate_production_methods={ "pm_simple_farming" "pm_tools_disabled" "pm_no_secondary" }
			}
		}
	}

	s:STATE_GARLAS_KEL = {
		region_state:F10 = {
			create_building={
				building="building_wheat_farm"
				add_ownership={
					building={
						type="building_wheat_farm"
						country="c:F10"
						levels=2
						region="STATE_GARLAS_KEL"
					}
				}
				reserves=1
				activate_production_methods={ "pm_simple_farming" "pm_tools_disabled" "pm_no_secondary" }
			}
			create_building={
				building="building_livestock_ranch"
				add_ownership={
					building={
						type="building_manor_house"
						country="c:F10"
						levels=1
						region="STATE_GARLAS_KEL"
					}
				}
				reserves=1
				activate_production_methods={ "pm_simple_ranch" "pm_standard_fences" "pm_unrefrigerated" "pm_open_air_stockyards" }
			}
		}
		region_state:F13 = {
			create_building={
				building="building_livestock_ranch"
				add_ownership={
					building={
						type="building_manor_house"
						country="c:F10"
						levels=1
						region="STATE_GARLAS_KEL"
					}
				}
				reserves=1
				activate_production_methods={ "pm_simple_ranch" "pm_standard_fences" "pm_unrefrigerated" "pm_open_air_stockyards" }
			}
		}
	}

	s:STATE_HARPYLEN = {
		region_state:F13 = {
			create_building={
				building="building_livestock_ranch"
				add_ownership={
					building={
						type="building_manor_house"
						country="c:F13"
						levels=3
						region="STATE_HARPYLEN"
					}
				}
				reserves=1
				activate_production_methods={ "pm_simple_ranch" "pm_standard_fences" "pm_unrefrigerated" "pm_open_air_stockyards" }
			}
			create_building={
				building="building_wheat_farm"
				add_ownership={
					building={
						type="building_wheat_farm"
						country="c:F13"
						levels=2
						region="STATE_HARPYLEN"
					}
				}
				reserves=1
				activate_production_methods={ "pm_simple_farming" "pm_tools_disabled" "pm_no_secondary" }
			}
		}
	}

	s:STATE_EAST_HARPY_HILLS={ #Gave lotsa livestock
		region_state:F13={
			create_building={
				building="building_livestock_ranch"
				add_ownership={
					building={
						type="building_manor_house"
						country="c:F13"
						levels=2
						region="STATE_EAST_HARPY_HILLS"
					}
				}
				reserves=1
				activate_production_methods={ "pm_simple_ranch" "pm_standard_fences" "pm_unrefrigerated" "pm_open_air_stockyards" }
			}
		}
	}

	s:STATE_FIRANYALEN={ #Gave lotsa livestock
		region_state:F13={
			create_building={
				building="building_livestock_ranch"
				add_ownership={
					building={
						type="building_manor_house"
						country="c:F13"
						levels=3
						region="STATE_FIRANYALEN"
					}
				}
				reserves=1
				activate_production_methods={ "pm_simple_ranch" "pm_standard_fences" "pm_unrefrigerated" "pm_open_air_stockyards" }
			}
			create_building={
				building="building_textile_mills"
				add_ownership={
					building={
						type="building_textile_mills"
						country="c:F13"
						levels=1
						region="STATE_FIRANYALEN"
					}
				}
				reserves=1
				activate_production_methods={ "pm_handsewn_clothes" "pm_no_luxury_clothes" "pm_traditional_looms" }
			}
			create_building={
				building="building_logging_camp"
				add_ownership={
					building={
						type="building_logging_camp"
						country="c:F13"
						levels=1
						region="STATE_FIRANYALEN"
					}
				}
				reserves=1
				activate_production_methods={ "pm_simple_forestry" "pm_no_equipment" "pm_road_carts" "pm_no_hardwood" }
			}
		}
	}

	s:STATE_ARDU={ #Livestock for gnoll noms
		region_state:F01={
			create_building={
				building="building_livestock_ranch"
				add_ownership={
					building={
						type="building_manor_house"
						country="c:F01"
						levels=2
						region="STATE_ARDU"
					}
					building={
						type="building_livestock_ranch"
						country="c:F01"
						levels=1
						region="STATE_ARDU"
					}
				}
				reserves=1
				activate_production_methods={ "pm_simple_ranch" "pm_standard_fences" "pm_unrefrigerated" "pm_open_air_stockyards" }
			}
		}
	}

	s:STATE_KERUHAR={
		region_state:F01={
			create_building={
				building="building_port"
				add_ownership={
					country={
						country="c:F01"
						levels=2
					}
				}
				reserves=1
				activate_production_methods={ "pm_basic_port" }
			}
		}
	}

	s:STATE_FAR_EAST_SALAHAD={ #Intentionally empty
		region_state:F01={
		}
	}

	s:STATE_EBBUSUBTU={
		region_state:F01={
			create_building={
				building="building_port"
				add_ownership={
					country={
						country="c:F01"
						levels=2
					}
				}
				reserves=1
				activate_production_methods={ "pm_basic_port" }
			}
			create_building={
				building="building_livestock_ranch"
				add_ownership={
					building={
						type="building_manor_house"
						country="c:F01"
						levels=1
						region="STATE_EBBUSUBTU"
					}
					building={
						type="building_livestock_ranch"
						country="c:F01"
						levels=1
						region="STATE_EBBUSUBTU"
					}
				}
				reserves=1
				activate_production_methods={ "pm_simple_ranch" "pm_standard_fences" "pm_unrefrigerated" "pm_open_air_stockyards" }
			}
		}
	}

	s:STATE_MULEN={
		region_state:F01={
			create_building={
				building="building_livestock_ranch"
				add_ownership={
					building={
						type="building_livestock_ranch"
						country="c:F01"
						levels=1
						region="STATE_MULEN"
					}
				}
				reserves=1
				activate_production_methods={ "pm_simple_ranch" "pm_standard_fences" "pm_unrefrigerated" "pm_open_air_stockyards" }
			}
		}
	}

	s:STATE_ELAYENNA={
		region_state:F01={
			create_building={
				building="building_livestock_ranch"
				add_ownership={
					building={
						type="building_manor_house"
						country="c:F01"
						levels=2
						region="STATE_ELAYENNA"
					}
					building={
						type="building_livestock_ranch"
						country="c:F01"
						levels=1
						region="STATE_ELAYENNA"
					}
				}
				reserves=1
				activate_production_methods={ "pm_simple_ranch" "pm_standard_fences" "pm_unrefrigerated" "pm_open_air_stockyards" }
			}
			create_building={
				building="building_opium_plantation"
				add_ownership={
					building={
						type="building_manor_house"
						country="c:R02"
						levels=2
						region="STATE_SOUTH_GHANKEDHEN"
					}
				}
				reserves=1
				activate_production_methods={ "pm_road_carts" }
			}
			create_building={
				building="building_textile_mills"
				add_ownership={
					building={
						type="building_textile_mills"
						country="c:F01"
						levels=1
						region="STATE_ELAYENNA"
					}
				}
				reserves=1
				activate_production_methods={ "pm_dye_workshops" "pm_craftsman_sewing" "pm_traditional_looms" }
			}
		}
	}

}